2 4 381 211 440 291
3 4 381 211 440 291
4 4 380 211 440 291
5 4 381 211 441 291
6 4 381 211 440 291
7 4 381 212 439 291
8 0 381 207 439 291
9 0 381 207 439 291
10 4 381 211 440 291
11 4 381 211 440 291
12 4 382 211 440 290
13 0 381 211 441 290
14 4 381 211 440 291
15 0 381 211 440 291
16 4 381 211 441 290
17 4 381 211 441 291
18 4 381 211 441 291
19 4 381 211 441 290
20 4 382 211 441 291
21 4 382 211 441 290
22 4 381 210 442 291
23 4 381 210 441 290
24 4 381 211 441 291
25 4 381 211 441 291
26 4 380 211 440 291
28 4 380 211 441 291
32 4 379 211 443 297
44 4 392 201 466 301
46 4 403 197 480 297
47 0 409 193 486 299
48 0 416 192 497 297
49 4 422 191 505 300
50 4 428 188 513 297
51 4 433 185 519 299
52 4 439 181 526 297
53 4 442 181 532 299
54 4 448 177 540 297
55 4 453 177 547 300
56 4 458 174 554 298
57 4 463 175 560 302
58 4 467 171 566 301
59 4 470 171 571 303
60 4 473 167 577 303
61 4 477 163 583 302
62 4 481 162 589 305
63 4 485 159 597 304
64 4 490 157 606 306
65 4 496 153 615 308
66 4 504 152 625 312
67 4 510 147 634 311
68 4 516 144 640 315
69 4 525 145 640 323
70 4 532 139 640 320
86 6 375 233 396 259
103 6 358 234 379 264
103 8 128 221 183 291
104 6 358 234 379 263
106 6 356 232 378 262
107 6 356 231 378 262
108 6 355 230 378 262
109 6 355 230 378 260
110 6 355 229 377 260
111 6 354 229 377 260
112 6 354 227 376 258
113 6 354 227 377 260
114 6 353 227 376 259
115 6 353 226 376 258
116 6 353 227 374 257
116 8 75 205 141 290
117 6 352 225 376 258
118 6 353 225 376 259
119 6 353 225 376 259
120 6 353 225 376 259
121 6 353 225 378 259
122 6 355 226 379 260
122 8 48 203 122 298
123 6 354 225 380 258
123 8 42 204 119 303
124 6 355 225 381 259
125 6 355 225 381 260
126 6 356 223 382 259
127 6 357 223 383 258
128 6 358 222 384 258
129 6 359 221 385 257
132 6 362 222 388 257
133 6 362 220 389 258
133 8 1 190 78 314
134 6 362 220 389 258
135 6 363 220 391 258
136 6 364 221 392 260
137 6 365 222 393 260
138 6 365 222 394 260
139 6 366 221 394 260
140 6 366 222 395 262
141 6 366 221 395 261
142 6 366 221 395 262
143 6 367 223 396 264
144 6 367 223 396 263
145 6 367 223 396 263
146 6 366 224 397 266
147 6 366 223 397 264
148 6 367 224 398 266
149 6 368 221 398 265
150 6 368 223 399 266
151 6 368 221 399 265
152 6 369 222 401 267
153 6 369 221 402 266
154 6 370 220 402 266
155 6 370 220 403 267
156 6 371 221 404 268
157 6 371 219 405 266
158 6 372 220 406 268
159 6 373 220 407 267
160 6 374 219 408 267
161 6 374 219 409 266
162 6 375 219 410 268
163 6 375 217 410 267
164 6 374 221 409 270
165 6 373 215 408 264
166 6 374 218 409 269
167 6 373 217 409 267
168 6 372 216 407 268
169 6 371 216 409 270
170 6 370 215 408 269
171 6 370 216 408 270
172 6 369 214 408 269
173 6 369 215 408 269
174 6 370 214 408 270
175 6 369 213 409 270
176 6 369 213 410 271
177 6 371 213 411 271
178 6 371 212 413 271
179 6 372 213 415 273
180 6 374 211 417 272
181 6 376 211 420 272
182 6 378 213 422 274
183 6 381 209 426 271
184 6 384 213 430 277
185 6 387 208 433 272
186 6 390 209 438 275
187 6 394 207 442 273
188 6 398 206 447 274
189 6 401 205 450 274
190 6 404 206 454 276
191 6 407 205 457 274
192 6 410 203 461 275
193 6 412 203 465 275
194 6 415 202 469 276
195 6 418 202 472 277
196 6 420 201 475 277
197 6 423 203 478 279
198 6 424 199 481 278
199 6 426 199 483 278
200 6 428 199 485 280
201 6 429 196 487 278
202 6 430 197 489 280
203 6 432 195 492 279
204 6 433 196 494 283
205 6 434 194 496 281
206 6 435 194 498 281
212 6 446 191 515 288
213 6 448 189 518 288
214 6 450 187 523 289
215 6 453 187 526 290
216 6 455 183 530 289
217 6 459 183 535 291
218 6 460 181 539 291
219 6 464 182 543 293
220 6 468 178 548 293
221 6 471 177 553 293
222 6 474 177 558 296
223 6 477 174 564 296
224 6 481 171 569 296
225 6 485 171 576 300
226 6 490 168 582 299
227 6 495 167 590 301
228 6 500 163 596 303
229 6 506 162 606 304
230 6 512 159 612 305
231 6 518 157 622 309
232 6 525 154 633 311
233 6 534 154 640 315
234 6 542 144 640 311
279 2 104 227 158 297
280 2 101 226 155 300
281 2 98 226 152 300
295 2 25 217 97 319
296 3 18 217 94 320
297 2 12 219 91 325
298 2 8 217 86 323
299 2 1 218 81 327
300 2 1 215 79 326
301 2 1 219 69 332
382 7 405 214 444 265
383 7 408 214 446 264
384 7 409 213 447 266
385 7 410 213 449 266
386 7 411 213 451 267
387 7 413 213 453 267
388 7 414 214 456 268
390 7 418 212 461 268
391 7 420 212 463 268
393 7 425 210 468 268
396 7 431 211 477 272
397 7 434 209 480 270
398 7 437 209 483 270
399 7 439 207 485 270
400 7 440 207 488 270
401 7 442 206 490 269
402 7 443 205 493 271
403 7 444 204 495 271
404 7 445 203 495 272
405 7 445 204 498 273
406 7 446 202 501 272
407 7 448 204 501 277
408 7 449 199 503 272
409 7 451 203 504 275
410 7 451 198 507 270
411 7 454 197 509 273
412 7 456 198 511 272
413 7 458 196 515 272
414 7 460 197 517 273
415 7 463 194 521 273
416 7 467 195 527 276
417 7 470 193 530 274
419 7 474 193 538 277
420 7 480 193 543 278
421 7 483 192 548 278
422 7 487 193 553 279
423 7 494 191 559 280
426 7 510 187 578 279
427 7 515 182 586 280
428 7 520 189 593 286
429 7 525 181 600 282
430 7 531 184 609 285
431 7 536 182 616 285
432 7 544 179 623 284
433 7 548 182 631 289
434 7 552 178 638 286
435 7 559 178 640 287
436 7 569 176 639 290
437 7 575 171 640 289
527 1 185 235 209 264
537 1 183 235 209 265
538 1 184 236 209 268
539 1 183 235 208 267
540 1 182 236 207 268
541 1 181 235 207 266
543 1 179 236 205 268
544 1 179 235 205 268
546 1 178 236 204 269
547 1 177 236 203 270
548 1 177 236 203 270
549 1 176 236 203 270
550 1 176 235 204 269
551 1 178 238 205 272
552 1 179 237 207 272
553 1 181 239 208 273
554 1 183 239 210 274
555 1 185 240 213 276
556 1 186 239 214 274
557 1 187 239 216 274
559 1 190 239 218 275
560 1 190 240 219 277
561 1 191 238 219 274
562 1 191 238 219 274
563 1 190 238 219 275
564 1 188 238 218 275
565 1 186 238 215 275
566 1 184 237 214 275
567 1 181 237 211 275
568 1 178 236 209 276
569 1 175 235 206 273
570 1 173 236 204 275
571 1 170 232 201 272
572 1 168 237 200 276
573 1 165 233 197 273
575 1 162 234 194 274
576 1 160 231 193 273
577 1 158 233 191 274
578 1 157 233 190 273
579 1 156 234 188 274
580 1 154 232 188 274
581 1 154 225 188 267
582 1 154 234 188 277
583 1 154 230 188 272
584 1 153 232 188 275
585 1 153 231 187 275
586 1 152 230 187 275
592 1 147 232 184 279
593 1 146 232 183 280
594 1 145 232 183 280
595 1 144 232 183 281
596 1 143 232 182 281
597 1 142 233 181 283
598 1 141 231 181 281
599 1 140 231 181 282
600 1 141 231 181 282
601 1 139 229 181 281
602 1 139 229 181 281
603 1 137 229 180 281
604 1 137 228 180 281
605 1 136 228 179 282
606 1 135 228 179 283
607 1 134 227 179 282
608 1 133 228 177 284
609 1 131 225 176 281
610 1 130 227 175 284
611 1 129 225 174 283
612 1 126 225 173 284
613 1 124 224 172 284
614 1 122 223 170 283
615 1 119 223 168 284
616 1 117 223 167 286
617 1 115 221 165 285
618 1 112 221 164 286
619 1 111 222 162 286
620 1 108 220 161 287
621 1 106 221 158 287
622 1 103 220 157 288
623 1 101 220 155 289
624 1 99 220 155 290
625 1 97 220 153 292
626 1 95 218 152 290
627 1 94 220 152 292
628 1 93 217 152 292
629 1 92 219 151 293
630 1 92 217 152 292
631 1 91 218 151 294
632 1 89 215 150 294
633 1 87 217 150 295
634 1 84 214 149 295
635 1 82 214 148 297
636 1 78 213 146 298
638 1 70 209 139 297
640 1 59 209 131 301
641 1 51 212 126 306
642 1 45 211 122 305
643 1 39 213 116 309
644 1 31 207 112 308
645 1 24 208 106 309
646 1 16 210 101 313
647 1 9 203 96 310
648 1 2 207 90 314
649 1 1 200 85 311
650 1 1 207 76 318
651 1 1 202 74 319
652 1 1 201 67 322
749 7 415 213 482 300
750 7 417 212 484 302
751 7 418 212 484 300
752 7 419 211 487 301
752 6 359 233 383 265
753 7 421 213 490 302
756 7 438 210 511 302
757 7 449 209 524 304
758 7 459 210 534 304
759 7 468 207 543 304
760 7 474 206 553 304
761 7 481 205 559 305
762 7 488 205 566 305
763 7 493 205 574 305
763 6 418 230 443 264
764 7 499 204 579 307
765 7 503 203 587 307
765 6 425 229 449 263
766 7 507 202 591 307
767 7 509 201 596 308
767 6 426 228 453 264
768 7 512 201 596 308
768 6 426 228 452 264
769 7 512 202 601 310
769 6 426 229 452 265
770 7 514 200 605 312
770 6 425 229 451 264
771 7 515 199 605 313
771 6 423 229 449 264
772 7 516 199 608 315
772 6 422 229 449 266
773 7 515 199 610 317
773 6 420 230 447 266
774 7 517 198 613 319
774 6 418 230 445 266
775 7 518 197 615 319
775 6 417 229 442 267
776 7 518 199 619 322
776 6 415 231 441 267
777 7 523 197 622 324
777 6 414 231 441 267
778 7 524 196 629 326
778 6 414 231 441 268
779 7 527 196 634 330
779 6 413 231 441 269
780 7 531 196 640 333
780 6 414 233 440 271
781 7 534 193 640 333
781 6 413 231 441 271
782 7 541 193 640 336
782 6 412 231 441 271
783 7 545 192 640 340
783 6 411 233 441 272
784 7 548 191 640 340
784 6 410 232 439 272
785 7 555 187 640 345
785 6 409 232 439 272
786 6 408 228 437 270
786 7 560 184 640 343
787 6 408 229 437 269
787 7 564 180 640 346
788 6 405 227 436 268
788 7 571 175 640 347
789 6 405 226 435 268
789 7 576 172 640 348
790 6 404 224 432 266
790 7 582 167 640 348
791 6 401 223 431 265
791 7 587 164 640 342
792 6 399 223 430 263
793 6 398 222 429 264
794 6 396 221 427 263
795 6 394 221 426 263
796 6 392 219 424 262
797 6 392 218 424 262
798 6 389 217 422 260
799 6 389 216 422 260
800 6 387 215 421 259
801 6 386 214 420 259
802 6 387 215 420 260
803 6 388 214 422 260
804 6 393 215 427 261
805 6 399 215 432 261
806 6 403 215 438 262
807 6 406 213 441 263
808 6 409 216 444 264
809 6 411 216 447 265
810 6 412 216 449 265
811 6 413 216 450 267
812 6 414 216 453 268
813 6 416 217 454 268
814 6 418 217 456 269
815 6 419 218 458 271
816 6 420 218 460 271
817 6 422 218 461 272
818 6 422 218 464 272
819 6 424 218 465 273
820 6 426 218 467 274
821 6 427 217 469 275
822 6 428 218 471 275
823 6 431 217 473 276
824 6 432 217 475 276
825 6 433 217 478 278
826 6 434 218 479 279
827 6 436 219 482 280
828 6 437 219 484 280
829 6 439 219 486 281
830 6 441 217 487 282
831 6 443 218 491 282
832 6 444 217 493 282
833 6 447 216 495 283
834 6 448 216 500 283
835 6 449 215 501 283
836 6 450 212 503 282
837 6 452 211 506 283
838 6 455 210 508 282
839 6 456 206 508 285
840 6 457 204 512 286
841 6 460 204 517 286
842 6 462 204 519 286
843 6 465 202 522 286
844 6 467 200 525 286
845 6 472 199 530 286
851 6 487 194 553 283
852 6 490 192 560 284
853 6 497 189 568 285
855 6 503 187 579 287
856 6 505 187 586 289
857 6 514 181 598 292
858 6 524 178 601 291
859 6 528 176 608 292
860 6 528 176 617 295
861 6 537 176 627 297
862 6 540 173 635 299
863 6 549 169 637 298
864 6 558 169 638 301
865 6 562 169 639 303
866 6 563 167 640 303
867 6 568 167 638 305
956 4 202 231 229 267
957 4 200 231 227 268
959 4 196 232 223 268
960 4 194 232 221 268
961 4 193 232 221 269
962 4 192 231 221 269
963 4 191 232 220 269
964 4 191 232 220 269
965 4 191 232 220 269
966 4 191 232 220 269
967 4 190 232 219 270
968 4 190 231 220 271
969 4 190 231 220 270
970 4 190 231 220 271
971 4 191 230 220 270
972 4 190 230 222 271
985 4 192 227 228 272
986 4 192 226 227 273
987 4 191 225 227 273
988 4 189 226 225 273
989 4 188 225 224 273
990 4 184 225 221 273
991 4 182 223 220 273
992 4 182 224 219 274
994 4 179 224 215 274
995 4 177 223 214 275
996 4 175 222 213 274
997 4 175 223 211 275
998 4 173 222 211 274
999 4 171 221 210 274
1000 4 169 224 210 276
1000 6 355 233 372 257
1001 4 168 224 207 277
1002 4 166 223 207 277
1003 4 165 223 207 277
1004 4 164 223 207 279
1005 4 163 223 207 279
1006 4 163 223 208 280
1007 4 163 223 209 281
1008 4 163 223 208 281
1009 4 164 223 210 282
1012 4 166 222 211 284
1013 4 164 222 212 284
1014 4 164 221 212 284
1014 6 379 233 398 257
1015 4 163 221 212 286
1017 4 161 220 211 286
1018 4 159 220 210 286
1019 4 156 219 208 287
1019 6 385 232 405 257
1020 4 153 219 204 287
1020 6 385 232 404 256
1021 4 149 219 202 289
1022 4 144 217 197 288
1024 4 134 215 189 290
1025 4 129 215 187 291
1026 4 122 215 181 290
1027 4 118 213 177 291
1028 4 112 212 173 292
1029 4 105 212 169 293
1032 4 90 209 155 294
1033 4 82 208 149 294
1035 4 71 207 141 297
1037 4 58 205 131 301
1038 4 53 205 126 301
1039 4 46 205 121 305
1040 4 39 205 117 306
1040 1 367 228 390 256
1041 4 33 204 113 307
1041 1 369 228 389 256
1042 4 28 203 107 309
1043 4 20 199 100 307
1044 4 12 199 97 309
1044 1 370 227 393 257
1045 4 5 198 94 314
1045 1 370 228 395 256
1046 4 1 196 85 314
1046 1 372 228 394 257
1047 4 1 193 78 316
1047 1 373 228 397 257
1048 4 1 192 73 319
1048 1 372 227 400 256
1049 4 1 191 66 323
1049 1 373 228 401 256
1051 4 1 187 53 328
1051 1 378 228 402 258
1052 4 2 189 41 332
1052 1 379 227 404 259
1053 1 380 228 405 258
1054 1 381 228 405 259
1054 7 1 197 26 323
1055 1 382 227 407 259
1056 1 382 227 408 259
1057 1 384 227 409 259
1058 1 384 227 410 260
1059 1 384 227 411 260
1060 1 385 228 411 261
1061 1 385 227 412 261
1062 1 386 227 412 260
1063 1 386 226 413 260
1064 1 387 225 413 261
1065 1 387 226 413 260
1066 1 387 226 414 260
1067 1 386 225 414 261
1070 1 383 225 410 261
1071 1 382 224 408 262
1072 1 379 225 407 262
1073 1 377 225 406 262
1074 1 375 224 405 262
1075 1 373 224 402 262
1076 1 372 225 400 262
1077 1 370 224 399 263
1079 1 368 225 396 264
1080 1 367 224 396 264
1081 1 366 223 395 264
1082 1 364 223 395 264
1083 1 364 223 395 265
1084 1 364 223 394 264
1085 1 365 223 396 264
1087 1 368 223 400 265
1088 1 372 223 405 265
1089 1 377 221 410 265
1090 1 382 221 415 265
1091 1 386 222 419 266
1092 1 388 220 423 266
1093 1 392 220 427 267
1095 1 397 220 433 267
1096 1 401 220 436 267
1097 1 403 219 439 267
1098 1 405 219 442 266
1100 1 410 218 448 268
1101 1 412 217 451 267
1104 1 417 216 455 268
1105 1 417 216 456 268
1108 1 418 215 459 270
1109 1 419 214 461 270
1110 1 419 215 462 270
1111 1 420 214 463 271
1112 1 422 215 464 271
1113 1 423 215 466 272
1114 1 425 215 468 271
1115 1 426 214 471 272
1116 1 428 214 473 273
1117 1 429 213 476 272
1118 1 432 213 478 274
1119 1 433 213 482 275
1120 1 436 213 483 275
1122 1 440 211 490 275
1123 1 443 211 492 276
1124 1 446 209 496 275
1125 1 449 208 499 275
1126 1 451 208 502 275
1127 1 454 207 507 276
1128 1 456 206 509 275
1129 1 457 206 513 276
1130 1 461 206 515 279
1131 1 461 205 517 277
1132 1 462 203 518 277
1133 1 465 202 521 277
1134 1 467 202 524 278
1135 1 469 204 528 279
1136 1 471 203 531 279
1138 1 476 201 539 281
1139 1 479 200 542 284
1140 1 482 200 547 285
1141 1 486 201 551 286
1142 1 490 199 555 286
1144 1 495 198 564 287
1145 1 500 197 570 288
1146 1 504 196 575 289
1147 1 508 195 580 289
1148 1 513 193 587 290
1149 1 518 192 593 290
1150 1 523 190 601 292
1151 1 528 189 610 294
1152 1 536 189 616 295
1153 1 541 187 624 295
1154 1 548 185 632 297
1155 1 554 184 640 297
1156 1 561 184 640 300
1157 1 567 183 640 301
1158 1 574 182 640 302
1290 2 47 207 115 303
1291 2 37 207 109 307
1293 2 21 206 99 311
1295 2 4 204 85 315
1296 2 1 201 77 315
1297 2 1 200 70 316
1356 3 391 220 426 270
1357 3 392 218 428 270
1362 3 403 215 443 270
1363 3 407 214 448 271
1364 3 410 213 452 271
1365 3 413 214 454 270
1366 3 417 213 457 271
1367 3 417 213 461 271
1368 3 419 212 465 271
1369 3 421 211 468 273
1370 3 425 211 472 273
1371 3 428 210 476 273
1372 3 431 209 479 274
1373 3 434 208 483 273
1374 3 438 208 487 274
1375 3 443 209 493 275
1376 3 445 207 498 276
1377 3 448 207 502 276
1378 3 453 208 507 277
1379 3 456 207 512 279
1380 3 462 207 516 278
1381 3 466 206 522 280
1382 3 469 206 527 279
1383 3 475 204 532 281
1384 3 477 202 537 281
1385 3 482 201 542 281
1386 3 485 201 548 282
1387 3 489 199 553 283
1388 3 493 198 558 283
1389 3 498 197 563 284
1393 3 513 194 583 289
1394 3 517 193 589 290
1395 3 520 191 594 290
1396 3 525 190 601 291
1397 3 529 189 607 293
1398 3 535 183 612 294
1399 3 538 185 621 293
1400 3 542 184 626 297
1401 3 548 181 633 297
1402 3 552 180 640 298
1403 3 556 178 640 302
1404 3 561 177 640 303
